module github.com/sean-david-welch/farmec-v2/server

go 1.22.0

require (
	firebase.google.com/go v3.13.0+incompatible
	github.com/DATA-DOG/go-sqlmock v1.5.2
	github.com/aws/aws-sdk-go-v2 v1.25.1
	github.com/aws/aws-sdk-go-v2/config v1.27.2
	github.com/aws/aws-sdk-go-v2/credentials v1.17.2
	github.com/aws/aws-sdk-go-v2/service/s3 v1.50.3
	github.com/aws/smithy-go v1.20.1
	github.com/gin-contrib/cors v1.5.0
	github.com/gin-gonic/gin v1.9.1
	github.com/golang/mock v1.6.0
	github.com/google/uuid v1.6.0
	github.com/joho/godotenv v1.5.1
	github.com/lib/pq v1.10.9
	github.com/signintech/gopdf v0.22.0
	github.com/stretchr/testify v1.8.4
	github.com/stripe/stripe-go/v76 v76.17.0
	google.golang.org/api v0.166.0
)

require (
	cloud.google.com/go v0.112.0 // indirect
	cloud.google.com/go/compute v1.24.0 // indirect
	cloud.google.com/go/compute/metadata v0.2.3 // indirect
	cloud.google.com/go/firestore v1.14.0 // indirect
	cloud.google.com/go/iam v1.1.6 // indirect
	cloud.google.com/go/longrunning v0.5.5 // indirect
	cloud.google.com/go/storage v1.38.0 // indirect
	github.com/aws/aws-sdk-go-v2/aws/protocol/eventstream v1.6.1 // indirect
	github.com/aws/aws-sdk-go-v2/feature/ec2/imds v1.15.1 // indirect
	github.com/aws/aws-sdk-go-v2/internal/configsources v1.3.1 // indirect
	github.com/aws/aws-sdk-go-v2/internal/endpoints/v2 v2.6.1 // indirect
	github.com/aws/aws-sdk-go-v2/internal/ini v1.8.0 // indirect
	github.com/aws/aws-sdk-go-v2/internal/v4a v1.3.1 // indirect
	github.com/aws/aws-sdk-go-v2/service/internal/accept-encoding v1.11.1 // indirect
	github.com/aws/aws-sdk-go-v2/service/internal/checksum v1.3.1 // indirect
	github.com/aws/aws-sdk-go-v2/service/internal/presigned-url v1.11.1 // indirect
	github.com/aws/aws-sdk-go-v2/service/internal/s3shared v1.17.1 // indirect
	github.com/aws/aws-sdk-go-v2/service/sso v1.19.2 // indirect
	github.com/aws/aws-sdk-go-v2/service/ssooidc v1.22.2 // indirect
	github.com/aws/aws-sdk-go-v2/service/sts v1.27.2 // indirect
	github.com/bytedance/sonic v1.11.0 // indirect
	github.com/chenzhuoyu/base64x v0.0.0-20230717121745-296ad89f973d // indirect
	github.com/chenzhuoyu/iasm v0.9.1 // indirect
	github.com/davecgh/go-spew v1.1.1 // indirect
	github.com/felixge/httpsnoop v1.0.4 // indirect
	github.com/gabriel-vasile/mimetype v1.4.3 // indirect
	github.com/gin-contrib/sse v0.1.0 // indirect
	github.com/go-logr/logr v1.4.1 // indirect
	github.com/go-logr/stdr v1.2.2 // indirect
	github.com/go-playground/locales v0.14.1 // indirect
	github.com/go-playground/universal-translator v0.18.1 // indirect
	github.com/go-playground/validator/v10 v10.18.0 // indirect
	github.com/goccy/go-json v0.10.2 // indirect
	github.com/golang/groupcache v0.0.0-20210331224755-41bb18bfe9da // indirect
	github.com/golang/protobuf v1.5.3 // indirect
	github.com/google/s2a-go v0.1.7 // indirect
	github.com/googleapis/enterprise-certificate-proxy v0.3.2 // indirect
	github.com/googleapis/gax-go/v2 v2.12.1 // indirect
	github.com/json-iterator/go v1.1.12 // indirect
	github.com/klauspost/cpuid/v2 v2.2.7 // indirect
	github.com/kr/text v0.2.0 // indirect
	github.com/leodido/go-urn v1.4.0 // indirect
	github.com/mattn/go-isatty v0.0.20 // indirect
	github.com/modern-go/concurrent v0.0.0-20180306012644-bacd9c7ef1dd // indirect
	github.com/modern-go/reflect2 v1.0.2 // indirect
	github.com/pelletier/go-toml/v2 v2.1.1 // indirect
	github.com/phpdave11/gofpdi v1.0.14-0.20211212211723-1f10f9844311 // indirect
	github.com/pkg/errors v0.9.1 // indirect
	github.com/pmezard/go-difflib v1.0.0 // indirect
	github.com/twitchyliquid64/golang-asm v0.15.1 // indirect
	github.com/ugorji/go/codec v1.2.12 // indirect
	go.opencensus.io v0.24.0 // indirect
	go.opentelemetry.io/contrib/instrumentation/google.golang.org/grpc/otelgrpc v0.48.0 // indirect
	go.opentelemetry.io/contrib/instrumentation/net/http/otelhttp v0.48.0 // indirect
	go.opentelemetry.io/otel v1.23.1 // indirect
	go.opentelemetry.io/otel/metric v1.23.1 // indirect
	go.opentelemetry.io/otel/trace v1.23.1 // indirect
	golang.org/x/arch v0.7.0 // indirect
	golang.org/x/crypto v0.19.0 // indirect
	golang.org/x/net v0.21.0 // indirect
	golang.org/x/oauth2 v0.17.0 // indirect
	golang.org/x/sync v0.6.0 // indirect
	golang.org/x/sys v0.17.0 // indirect
	golang.org/x/text v0.14.0 // indirect
	golang.org/x/time v0.5.0 // indirect
	google.golang.org/appengine v1.6.8 // indirect
	google.golang.org/genproto v0.0.0-20240221002015-b0ce06bbee7c // indirect
	google.golang.org/genproto/googleapis/api v0.0.0-20240221002015-b0ce06bbee7c // indirect
	google.golang.org/genproto/googleapis/rpc v0.0.0-20240221002015-b0ce06bbee7c // indirect
	google.golang.org/grpc v1.62.0 // indirect
	google.golang.org/protobuf v1.32.0 // indirect
	gopkg.in/yaml.v3 v3.0.1 // indirect
)
